-----BEGIN PUBLIC KEY-----
MIIBIjANBgkqhkiG9w0BAQEFAAOCAQ8AMIIBCgKCAQEA7kR+46ikrgCwZNBQkQIE
paMbdgtbFSd8ptv245Q4zPYn5wDie5PUIOr94ovTicycXjxQOoV5Qe+WcZcVVDuT
0T1pCEIyKh2ue8q+BZYVVohLPIdfNVD8JX96Hjsfte8bM4pfFcRl6steGQa2r27n
1d98eEi7+FqrBxNH6SC1TyeJBb0Cr5l48ZSMkEttO9S9w73Mw/tPxlmA5195+NuJ
q3ojQibAnoIy301Nd/Ob1HVv2aH1RQCx/OiKL5LA6BWYFlEiMs7KoHX9+8kwTCER
+9p6N0XPtPWO2ju2Y60g/zykPE51b8xb5SeOWMOSQkC3QE7VLqO13gIaDccihWgW
mwIDAQAB
-----END PUBLIC KEY-----