-----BEGIN PUBLIC KEY-----
MIIBIjANBgkqhkiG9w0BAQEFAAOCAQ8AMIIBCgKCAQEAp4wUrvoU30w446EufUWk
grRVrV2tP8cIqyfyBIPxbLbmolTJQljT81NwPNLVK0lv17MaVJdyZDbuEfO0/7dc
n8BHUhI7zjqvDG7o5opMo5wFiLx44erzpHgg/B8Hh6uY+u5pmI6uVBcaRCQgOvu+
oe8Dyu1FEO4g6SP66mv9rPr20YDaC7MI3V+wmoN8CKrQ5AFYHX2wxgBpjhUD8HIu
hleaiRNt/q//BymiBE5eRnOQioDPwqMLWUP5mlW7TolqdJKl5ml1JHUyFYeoYMgl
Mh8UE7m2ioEulBoH3CdbCtBYodz7FHy71LagnWly1y9+798ypHBUrFzDuyD4GFo0
HQIDAQAB
-----END PUBLIC KEY-----